^F:\PROJECTS\ИНТЕРПРЕТАТОР\VIRTUALMACHINE\VIRTUALMACHINE(D)\COMMAND.CPP
/c /Zi /nologo /W3 /WX- /diagnostics:classic /sdl /O2 /Oi /Oy- /GL /D _MBCS /Gm- /EHsc /MD /GS /Gy /fp:precise /Zc:wchar_t /Zc:forScope /Zc:inline /Fo"RELEASE\\" /Fd"RELEASE\VC141.PDB" /Gd /TP /analyze- F:\PROJECTS\ИНТЕРПРЕТАТОР\VIRTUALMACHINE\VIRTUALMACHINE(D)\COMMAND.CPP
^F:\PROJECTS\ИНТЕРПРЕТАТОР\VIRTUALMACHINE\VIRTUALMACHINE(D)\LOADER.CPP
/c /Zi /nologo /W3 /WX- /diagnostics:classic /sdl /O2 /Oi /Oy- /GL /D _MBCS /Gm- /EHsc /MD /GS /Gy /fp:precise /Zc:wchar_t /Zc:forScope /Zc:inline /Fo"RELEASE\\" /Fd"RELEASE\VC141.PDB" /Gd /TP /analyze- F:\PROJECTS\ИНТЕРПРЕТАТОР\VIRTUALMACHINE\VIRTUALMACHINE(D)\LOADER.CPP
^F:\PROJECTS\ИНТЕРПРЕТАТОР\VIRTUALMACHINE\VIRTUALMACHINE(D)\MAIN.CPP
/c /Zi /nologo /W3 /WX- /diagnostics:classic /sdl /O2 /Oi /Oy- /GL /D _MBCS /Gm- /EHsc /MD /GS /Gy /fp:precise /Zc:wchar_t /Zc:forScope /Zc:inline /Fo"RELEASE\\" /Fd"RELEASE\VC141.PDB" /Gd /TP /analyze- F:\PROJECTS\ИНТЕРПРЕТАТОР\VIRTUALMACHINE\VIRTUALMACHINE(D)\MAIN.CPP
^F:\PROJECTS\ИНТЕРПРЕТАТОР\VIRTUALMACHINE\VIRTUALMACHINE(D)\MEMORY.CPP
/c /Zi /nologo /W3 /WX- /diagnostics:classic /sdl /O2 /Oi /Oy- /GL /D _MBCS /Gm- /EHsc /MD /GS /Gy /fp:precise /Zc:wchar_t /Zc:forScope /Zc:inline /Fo"RELEASE\\" /Fd"RELEASE\VC141.PDB" /Gd /TP /analyze- F:\PROJECTS\ИНТЕРПРЕТАТОР\VIRTUALMACHINE\VIRTUALMACHINE(D)\MEMORY.CPP
^F:\PROJECTS\ИНТЕРПРЕТАТОР\VIRTUALMACHINE\VIRTUALMACHINE(D)\PROCESSOR.CPP
/c /Zi /nologo /W3 /WX- /diagnostics:classic /sdl /O2 /Oi /Oy- /GL /D _MBCS /Gm- /EHsc /MD /GS /Gy /fp:precise /Zc:wchar_t /Zc:forScope /Zc:inline /Fo"RELEASE\\" /Fd"RELEASE\VC141.PDB" /Gd /TP /analyze- F:\PROJECTS\ИНТЕРПРЕТАТОР\VIRTUALMACHINE\VIRTUALMACHINE(D)\PROCESSOR.CPP
^F:\PROJECTS\ИНТЕРПРЕТАТОР\VIRTUALMACHINE\VIRTUALMACHINE(D)\STACK.CPP
/c /Zi /nologo /W3 /WX- /diagnostics:classic /sdl /O2 /Oi /Oy- /GL /D _MBCS /Gm- /EHsc /MD /GS /Gy /fp:precise /Zc:wchar_t /Zc:forScope /Zc:inline /Fo"RELEASE\\" /Fd"RELEASE\VC141.PDB" /Gd /TP /analyze- F:\PROJECTS\ИНТЕРПРЕТАТОР\VIRTUALMACHINE\VIRTUALMACHINE(D)\STACK.CPP
